%YAML 1.1
%TAG !u! tag:unity3d.com,2011:
--- !u!74 &7400000
AnimationClip:
  m_ObjectHideFlags: 0
  m_CorrespondingSourceObject: {fileID: 0}
  m_PrefabInstance: {fileID: 0}
  m_PrefabAsset: {fileID: 0}
  m_Name: PusherPulse
  serializedVersion: 6
  m_Legacy: 0
  m_Compressed: 0
  m_UseHighQualityCurve: 1
  m_RotationCurves: []
  m_CompressedRotationCurves: []
  m_EulerCurves: []
  m_PositionCurves: []
  m_ScaleCurves: []
  m_FloatCurves: []
  m_PPtrCurves:
  - curve:
    - time: 0
      value: {fileID: 6781233934427082479, guid: d8e67449b16fdb641bef900ae86ce3ba,
        type: 3}
    - time: 0.016666668
      value: {fileID: -2294220791350666191, guid: d8e67449b16fdb641bef900ae86ce3ba,
        type: 3}
    - time: 0.033333335
      value: {fileID: -2223927478770572392, guid: d8e67449b16fdb641bef900ae86ce3ba,
        type: 3}
    - time: 0.05
      value: {fileID: -8663061494359282042, guid: d8e67449b16fdb641bef900ae86ce3ba,
        type: 3}
    - time: 0.06666667
      value: {fileID: -2189383396663142210, guid: d8e67449b16fdb641bef900ae86ce3ba,
        type: 3}
    - time: 0.083333336
      value: {fileID: 3355863427032976348, guid: d8e67449b16fdb641bef900ae86ce3ba,
        type: 3}
    - time: 0.1
      value: {fileID: 2876480562297291671, guid: d8e67449b16fdb641bef900ae86ce3ba,
        type: 3}
    - time: 0.11666667
      value: {fileID: 2511184369890384127, guid: d8e67449b16fdb641bef900ae86ce3ba,
        type: 3}
    - time: 0.13333334
      value: {fileID: 6136223045595836832, guid: d8e67449b16fdb641bef900ae86ce3ba,
        type: 3}
    - time: 0.15
      value: {fileID: 311044622001380780, guid: d8e67449b16fdb641bef900ae86ce3ba,
        type: 3}
    - time: 0.16666667
      value: {fileID: -6574910132798813433, guid: d8e67449b16fdb641bef900ae86ce3ba,
        type: 3}
    attribute: m_Sprite
    path: 
    classID: 212
    script: {fileID: 0}
  m_SampleRate: 60
  m_WrapMode: 0
  m_Bounds:
    m_Center: {x: 0, y: 0, z: 0}
    m_Extent: {x: 0, y: 0, z: 0}
  m_ClipBindingConstant:
    genericBindings:
    - serializedVersion: 2
      path: 0
      attribute: 0
      script: {fileID: 0}
      typeID: 212
      customType: 23
      isPPtrCurve: 1
    pptrCurveMapping:
    - {fileID: 6781233934427082479, guid: d8e67449b16fdb641bef900ae86ce3ba, type: 3}
    - {fileID: -2294220791350666191, guid: d8e67449b16fdb641bef900ae86ce3ba, type: 3}
    - {fileID: -2223927478770572392, guid: d8e67449b16fdb641bef900ae86ce3ba, type: 3}
    - {fileID: -8663061494359282042, guid: d8e67449b16fdb641bef900ae86ce3ba, type: 3}
    - {fileID: -2189383396663142210, guid: d8e67449b16fdb641bef900ae86ce3ba, type: 3}
    - {fileID: 3355863427032976348, guid: d8e67449b16fdb641bef900ae86ce3ba, type: 3}
    - {fileID: 2876480562297291671, guid: d8e67449b16fdb641bef900ae86ce3ba, type: 3}
    - {fileID: 2511184369890384127, guid: d8e67449b16fdb641bef900ae86ce3ba, type: 3}
    - {fileID: 6136223045595836832, guid: d8e67449b16fdb641bef900ae86ce3ba, type: 3}
    - {fileID: 311044622001380780, guid: d8e67449b16fdb641bef900ae86ce3ba, type: 3}
    - {fileID: -6574910132798813433, guid: d8e67449b16fdb641bef900ae86ce3ba, type: 3}
  m_AnimationClipSettings:
    serializedVersion: 2
    m_AdditiveReferencePoseClip: {fileID: 0}
    m_AdditiveReferencePoseTime: 0
    m_StartTime: 0
    m_StopTime: 0.18333334
    m_OrientationOffsetY: 0
    m_Level: 0
    m_CycleOffset: 0
    m_HasAdditiveReferencePose: 0
    m_LoopTime: 1
    m_LoopBlend: 0
    m_LoopBlendOrientation: 0
    m_LoopBlendPositionY: 0
    m_LoopBlendPositionXZ: 0
    m_KeepOriginalOrientation: 0
    m_KeepOriginalPositionY: 1
    m_KeepOriginalPositionXZ: 0
    m_HeightFromFeet: 0
    m_Mirror: 0
  m_EditorCurves: []
  m_EulerEditorCurves: []
  m_HasGenericRootTransform: 0
  m_HasMotionFloatCurves: 0
  m_Events: []
