%YAML 1.1
%TAG !u! tag:unity3d.com,2011:
--- !u!74 &7400000
AnimationClip:
  m_ObjectHideFlags: 0
  m_CorrespondingSourceObject: {fileID: 0}
  m_PrefabInstance: {fileID: 0}
  m_PrefabAsset: {fileID: 0}
  m_Name: ExitOn
  serializedVersion: 6
  m_Legacy: 0
  m_Compressed: 0
  m_UseHighQualityCurve: 1
  m_RotationCurves: []
  m_CompressedRotationCurves: []
  m_EulerCurves: []
  m_PositionCurves: []
  m_ScaleCurves: []
  m_FloatCurves: []
  m_PPtrCurves:
  - curve:
    - time: 0
      value: {fileID: -3985504364236080531, guid: 4b6f6042abd0ca0449c28d08938c8c9a,
        type: 3}
    - time: 0.083333336
      value: {fileID: 2395068827286887499, guid: 4b6f6042abd0ca0449c28d08938c8c9a,
        type: 3}
    - time: 0.16666667
      value: {fileID: -6183858994869084236, guid: 4b6f6042abd0ca0449c28d08938c8c9a,
        type: 3}
    - time: 0.25
      value: {fileID: -2561830481542524706, guid: 4b6f6042abd0ca0449c28d08938c8c9a,
        type: 3}
    - time: 0.26666668
      value: {fileID: -7238806407225927975, guid: 4b6f6042abd0ca0449c28d08938c8c9a,
        type: 3}
    - time: 0.28333333
      value: {fileID: 865396780713809183, guid: 4b6f6042abd0ca0449c28d08938c8c9a,
        type: 3}
    - time: 0.3
      value: {fileID: 2708797687752948938, guid: 4b6f6042abd0ca0449c28d08938c8c9a,
        type: 3}
    - time: 0.31666666
      value: {fileID: 7042695166477987518, guid: 4b6f6042abd0ca0449c28d08938c8c9a,
        type: 3}
    - time: 0.33333334
      value: {fileID: 865396780713809183, guid: 4b6f6042abd0ca0449c28d08938c8c9a,
        type: 3}
    - time: 0.35
      value: {fileID: 2708797687752948938, guid: 4b6f6042abd0ca0449c28d08938c8c9a,
        type: 3}
    - time: 0.36666667
      value: {fileID: 7042695166477987518, guid: 4b6f6042abd0ca0449c28d08938c8c9a,
        type: 3}
    - time: 0.38333333
      value: {fileID: 865396780713809183, guid: 4b6f6042abd0ca0449c28d08938c8c9a,
        type: 3}
    - time: 0.4
      value: {fileID: 2708797687752948938, guid: 4b6f6042abd0ca0449c28d08938c8c9a,
        type: 3}
    attribute: m_Sprite
    path: 
    classID: 212
    script: {fileID: 0}
  m_SampleRate: 60
  m_WrapMode: 0
  m_Bounds:
    m_Center: {x: 0, y: 0, z: 0}
    m_Extent: {x: 0, y: 0, z: 0}
  m_ClipBindingConstant:
    genericBindings:
    - serializedVersion: 2
      path: 0
      attribute: 0
      script: {fileID: 0}
      typeID: 212
      customType: 23
      isPPtrCurve: 1
    pptrCurveMapping:
    - {fileID: -3985504364236080531, guid: 4b6f6042abd0ca0449c28d08938c8c9a, type: 3}
    - {fileID: 2395068827286887499, guid: 4b6f6042abd0ca0449c28d08938c8c9a, type: 3}
    - {fileID: -6183858994869084236, guid: 4b6f6042abd0ca0449c28d08938c8c9a, type: 3}
    - {fileID: -2561830481542524706, guid: 4b6f6042abd0ca0449c28d08938c8c9a, type: 3}
    - {fileID: -7238806407225927975, guid: 4b6f6042abd0ca0449c28d08938c8c9a, type: 3}
    - {fileID: 865396780713809183, guid: 4b6f6042abd0ca0449c28d08938c8c9a, type: 3}
    - {fileID: 2708797687752948938, guid: 4b6f6042abd0ca0449c28d08938c8c9a, type: 3}
    - {fileID: 7042695166477987518, guid: 4b6f6042abd0ca0449c28d08938c8c9a, type: 3}
    - {fileID: 865396780713809183, guid: 4b6f6042abd0ca0449c28d08938c8c9a, type: 3}
    - {fileID: 2708797687752948938, guid: 4b6f6042abd0ca0449c28d08938c8c9a, type: 3}
    - {fileID: 7042695166477987518, guid: 4b6f6042abd0ca0449c28d08938c8c9a, type: 3}
    - {fileID: 865396780713809183, guid: 4b6f6042abd0ca0449c28d08938c8c9a, type: 3}
    - {fileID: 2708797687752948938, guid: 4b6f6042abd0ca0449c28d08938c8c9a, type: 3}
  m_AnimationClipSettings:
    serializedVersion: 2
    m_AdditiveReferencePoseClip: {fileID: 0}
    m_AdditiveReferencePoseTime: 0
    m_StartTime: 0
    m_StopTime: 0.4166667
    m_OrientationOffsetY: 0
    m_Level: 0
    m_CycleOffset: 0
    m_HasAdditiveReferencePose: 0
    m_LoopTime: 0
    m_LoopBlend: 0
    m_LoopBlendOrientation: 0
    m_LoopBlendPositionY: 0
    m_LoopBlendPositionXZ: 0
    m_KeepOriginalOrientation: 0
    m_KeepOriginalPositionY: 1
    m_KeepOriginalPositionXZ: 0
    m_HeightFromFeet: 0
    m_Mirror: 0
  m_EditorCurves: []
  m_EulerEditorCurves: []
  m_HasGenericRootTransform: 0
  m_HasMotionFloatCurves: 0
  m_Events: []
