%YAML 1.1
%TAG !u! tag:unity3d.com,2011:
--- !u!1 &5784344424665238773
GameObject:
  m_ObjectHideFlags: 0
  m_CorrespondingSourceObject: {fileID: 0}
  m_PrefabInstance: {fileID: 0}
  m_PrefabAsset: {fileID: 0}
  serializedVersion: 6
  m_Component:
  - component: {fileID: 4415125862120955594}
  - component: {fileID: 3030469397391334156}
  - component: {fileID: 5623575725870815510}
  m_Layer: 31
  m_Name: Layer1
  m_TagString: Untagged
  m_Icon: {fileID: 0}
  m_NavMeshLayer: 0
  m_StaticEditorFlags: 0
  m_IsActive: 1
--- !u!4 &4415125862120955594
Transform:
  m_ObjectHideFlags: 0
  m_CorrespondingSourceObject: {fileID: 0}
  m_PrefabInstance: {fileID: 0}
  m_PrefabAsset: {fileID: 0}
  m_GameObject: {fileID: 5784344424665238773}
  m_LocalRotation: {x: -0, y: -0, z: -0, w: 1}
  m_LocalPosition: {x: 0, y: 0, z: 0}
  m_LocalScale: {x: 1, y: 1, z: 1}
  m_Children: []
  m_Father: {fileID: 9193156314932105748}
  m_RootOrder: 0
  m_LocalEulerAnglesHint: {x: 0, y: 0, z: 0}
--- !u!1839735485 &3030469397391334156
Tilemap:
  m_ObjectHideFlags: 0
  m_CorrespondingSourceObject: {fileID: 0}
  m_PrefabInstance: {fileID: 0}
  m_PrefabAsset: {fileID: 0}
  m_GameObject: {fileID: 5784344424665238773}
  m_Enabled: 1
  m_Tiles:
  - first: {x: 2, y: -2, z: 0}
    second:
      m_TileIndex: 5
      m_TileSpriteIndex: 9
      m_TileMatrixIndex: 0
      m_TileColorIndex: 1
      m_ObjectToInstantiate: {fileID: 4174002972477153303, guid: d2ec133ba0944f146b606026bc60adfe,
        type: 3}
      m_TileFlags: 2
      m_ColliderType: 1
  - first: {x: 3, y: -2, z: 0}
    second:
      m_TileIndex: 7
      m_TileSpriteIndex: 2
      m_TileMatrixIndex: 0
      m_TileColorIndex: 1
      m_ObjectToInstantiate: {fileID: 4174002972477153303, guid: d2ec133ba0944f146b606026bc60adfe,
        type: 3}
      m_TileFlags: 2
      m_ColliderType: 1
  - first: {x: 4, y: -2, z: 0}
    second:
      m_TileIndex: 6
      m_TileSpriteIndex: 1
      m_TileMatrixIndex: 0
      m_TileColorIndex: 1
      m_ObjectToInstantiate: {fileID: 4174002972477153303, guid: d2ec133ba0944f146b606026bc60adfe,
        type: 3}
      m_TileFlags: 2
      m_ColliderType: 1
  - first: {x: 0, y: -1, z: 0}
    second:
      m_TileIndex: 4
      m_TileSpriteIndex: 8
      m_TileMatrixIndex: 0
      m_TileColorIndex: 1
      m_ObjectToInstantiate: {fileID: 0}
      m_TileFlags: 1
      m_ColliderType: 1
  - first: {x: 1, y: -1, z: 0}
    second:
      m_TileIndex: 3
      m_TileSpriteIndex: 7
      m_TileMatrixIndex: 0
      m_TileColorIndex: 1
      m_ObjectToInstantiate: {fileID: 0}
      m_TileFlags: 1
      m_ColliderType: 1
  - first: {x: 3, y: -1, z: 0}
    second:
      m_TileIndex: 8
      m_TileSpriteIndex: 3
      m_TileMatrixIndex: 0
      m_TileColorIndex: 1
      m_ObjectToInstantiate: {fileID: 4174002972477153303, guid: d2ec133ba0944f146b606026bc60adfe,
        type: 3}
      m_TileFlags: 2
      m_ColliderType: 1
  - first: {x: -1, y: 0, z: 0}
    second:
      m_TileIndex: 2
      m_TileSpriteIndex: 6
      m_TileMatrixIndex: 0
      m_TileColorIndex: 1
      m_ObjectToInstantiate: {fileID: 0}
      m_TileFlags: 2
      m_ColliderType: 2
  - first: {x: 0, y: 0, z: 0}
    second:
      m_TileIndex: 1
      m_TileSpriteIndex: 5
      m_TileMatrixIndex: 0
      m_TileColorIndex: 1
      m_ObjectToInstantiate: {fileID: 0}
      m_TileFlags: 1
      m_ColliderType: 1
  - first: {x: 1, y: 0, z: 0}
    second:
      m_TileIndex: 0
      m_TileSpriteIndex: 4
      m_TileMatrixIndex: 0
      m_TileColorIndex: 1
      m_ObjectToInstantiate: {fileID: 0}
      m_TileFlags: 1
      m_ColliderType: 1
  m_AnimatedTiles: {}
  m_TileAssetArray:
  - m_RefCount: 1
    m_Data: {fileID: 11400000, guid: e539176940757f440803ff2a6f798ea7, type: 2}
  - m_RefCount: 1
    m_Data: {fileID: 11400000, guid: 19a74cd3b4cbaf24db89aa6b964523ad, type: 2}
  - m_RefCount: 1
    m_Data: {fileID: 11400000, guid: 442314f11a7083a4c91c95b1ab93347d, type: 2}
  - m_RefCount: 1
    m_Data: {fileID: 11400000, guid: 06317bfb499c5ae469bcbdc7557d94e7, type: 2}
  - m_RefCount: 1
    m_Data: {fileID: 11400000, guid: 5a6294489d0d4c54f85eb08076d413d0, type: 2}
  - m_RefCount: 1
    m_Data: {fileID: 11400000, guid: 71ec51350bd2f1e4cafd219f9c83cd42, type: 2}
  - m_RefCount: 1
    m_Data: {fileID: 11400000, guid: d07e98410b3fd4b4f8c20b2129765e2f, type: 2}
  - m_RefCount: 1
    m_Data: {fileID: 11400000, guid: 3808c1e4e24fcb641ac210702878331e, type: 2}
  - m_RefCount: 1
    m_Data: {fileID: 11400000, guid: 28aa3f7764bba4646a34a7971517e70c, type: 2}
  - m_RefCount: 0
    m_Data: {fileID: 0}
  m_TileSpriteArray:
  - m_RefCount: 0
    m_Data: {fileID: 0}
  - m_RefCount: 1
    m_Data: {fileID: -3982201508003763236, guid: a8dcdb078bd2d664f93c3829fd81b7da,
      type: 3}
  - m_RefCount: 1
    m_Data: {fileID: 4712665625723851849, guid: a8dcdb078bd2d664f93c3829fd81b7da,
      type: 3}
  - m_RefCount: 1
    m_Data: {fileID: 8523020289928840273, guid: a8dcdb078bd2d664f93c3829fd81b7da,
      type: 3}
  - m_RefCount: 1
    m_Data: {fileID: 3312721159151944368, guid: 4c4b8b099c150214a8b000ca283e6977,
      type: 3}
  - m_RefCount: 1
    m_Data: {fileID: 3669226616687905682, guid: 4c4b8b099c150214a8b000ca283e6977,
      type: 3}
  - m_RefCount: 1
    m_Data: {fileID: 9040745417708803086, guid: 47317c303865ff240a4de062347aabd2,
      type: 3}
  - m_RefCount: 1
    m_Data: {fileID: 635252179176469080, guid: 4c4b8b099c150214a8b000ca283e6977, type: 3}
  - m_RefCount: 1
    m_Data: {fileID: 1011471083097744320, guid: 4c4b8b099c150214a8b000ca283e6977,
      type: 3}
  - m_RefCount: 1
    m_Data: {fileID: 5457082597536806113, guid: a8dcdb078bd2d664f93c3829fd81b7da,
      type: 3}
  m_TileMatrixArray:
  - m_RefCount: 9
    m_Data:
      e00: 1
      e01: 0
      e02: 0
      e03: 0
      e10: 0
      e11: 1
      e12: 0
      e13: 0
      e20: 0
      e21: 0
      e22: 1
      e23: 0
      e30: 0
      e31: 0
      e32: 0
      e33: 1
  m_TileColorArray:
  - m_RefCount: 0
    m_Data: {r: 3.1882384e-20, g: 3.1882384e-20, b: 3.1882384e-20, a: 3.1882384e-20}
  - m_RefCount: 9
    m_Data: {r: 1, g: 1, b: 1, a: 1}
  - m_RefCount: 0
    m_Data: {r: -1.3284722e-37, g: -1.3284722e-37, b: -1.3284722e-37, a: -1.3284722e-37}
  - m_RefCount: 0
    m_Data: {r: -1.330108e-37, g: -1.330108e-37, b: -1.330108e-37, a: -1.330108e-37}
  - m_RefCount: 0
    m_Data: {r: -1.3341079e-37, g: -1.3341079e-37, b: -1.3341079e-37, a: -1.3341079e-37}
  m_AnimationFrameRate: 1
  m_Color: {r: 1, g: 1, b: 1, a: 1}
  m_Origin: {x: -2, y: -2, z: 0}
  m_Size: {x: 7, y: 3, z: 1}
  m_TileAnchor: {x: 0.5, y: 0.5, z: 0}
  m_TileOrientation: 0
  m_TileOrientationMatrix:
    e00: 1
    e01: 0
    e02: 0
    e03: 0
    e10: 0
    e11: 1
    e12: 0
    e13: 0
    e20: 0
    e21: 0
    e22: 1
    e23: 0
    e30: 0
    e31: 0
    e32: 0
    e33: 1
--- !u!483693784 &5623575725870815510
TilemapRenderer:
  m_ObjectHideFlags: 0
  m_CorrespondingSourceObject: {fileID: 0}
  m_PrefabInstance: {fileID: 0}
  m_PrefabAsset: {fileID: 0}
  m_GameObject: {fileID: 5784344424665238773}
  m_Enabled: 0
  m_CastShadows: 0
  m_ReceiveShadows: 0
  m_DynamicOccludee: 0
  m_MotionVectors: 1
  m_LightProbeUsage: 0
  m_ReflectionProbeUsage: 0
  m_RenderingLayerMask: 1
  m_RendererPriority: 0
  m_Materials:
  - {fileID: 10754, guid: 0000000000000000f000000000000000, type: 0}
  m_StaticBatchInfo:
    firstSubMesh: 0
    subMeshCount: 0
  m_StaticBatchRoot: {fileID: 0}
  m_ProbeAnchor: {fileID: 0}
  m_LightProbeVolumeOverride: {fileID: 0}
  m_ScaleInLightmap: 1
  m_ReceiveGI: 1
  m_PreserveUVs: 0
  m_IgnoreNormalsForChartDetection: 0
  m_ImportantGI: 0
  m_StitchLightmapSeams: 1
  m_SelectedEditorRenderState: 0
  m_MinimumChartSize: 4
  m_AutoUVMaxDistance: 0.5
  m_AutoUVMaxAngle: 89
  m_LightmapParameters: {fileID: 0}
  m_SortingLayerID: 0
  m_SortingLayer: 0
  m_SortingOrder: 0
  m_ChunkSize: {x: 32, y: 32, z: 32}
  m_ChunkCullingBounds: {x: 0, y: 0, z: 0}
  m_MaxChunkCount: 16
  m_MaxFrameAge: 16
  m_SortOrder: 0
  m_Mode: 0
  m_DetectChunkCullingBounds: 0
  m_MaskInteraction: 0
--- !u!1 &8229641912503166773
GameObject:
  m_ObjectHideFlags: 0
  m_CorrespondingSourceObject: {fileID: 0}
  m_PrefabInstance: {fileID: 0}
  m_PrefabAsset: {fileID: 0}
  serializedVersion: 6
  m_Component:
  - component: {fileID: 9193156314932105748}
  - component: {fileID: 6502262252870023724}
  m_Layer: 31
  m_Name: Tiles
  m_TagString: Untagged
  m_Icon: {fileID: 0}
  m_NavMeshLayer: 0
  m_StaticEditorFlags: 0
  m_IsActive: 1
--- !u!4 &9193156314932105748
Transform:
  m_ObjectHideFlags: 0
  m_CorrespondingSourceObject: {fileID: 0}
  m_PrefabInstance: {fileID: 0}
  m_PrefabAsset: {fileID: 0}
  m_GameObject: {fileID: 8229641912503166773}
  m_LocalRotation: {x: 0, y: 0, z: 0, w: 1}
  m_LocalPosition: {x: 0, y: 0, z: 0}
  m_LocalScale: {x: 1, y: 1, z: 1}
  m_Children:
  - {fileID: 4415125862120955594}
  m_Father: {fileID: 0}
  m_RootOrder: 0
  m_LocalEulerAnglesHint: {x: 0, y: 0, z: 0}
--- !u!156049354 &6502262252870023724
Grid:
  m_ObjectHideFlags: 0
  m_CorrespondingSourceObject: {fileID: 0}
  m_PrefabInstance: {fileID: 0}
  m_PrefabAsset: {fileID: 0}
  m_GameObject: {fileID: 8229641912503166773}
  m_Enabled: 1
  m_CellSize: {x: 0.16, y: 0.16, z: 0}
  m_CellGap: {x: 0, y: 0, z: 0}
  m_CellLayout: 0
  m_CellSwizzle: 0
--- !u!114 &-1254273900932062789
MonoBehaviour:
  m_ObjectHideFlags: 0
  m_CorrespondingSourceObject: {fileID: 0}
  m_PrefabInstance: {fileID: 0}
  m_PrefabAsset: {fileID: 0}
  m_GameObject: {fileID: 0}
  m_Enabled: 1
  m_EditorHideFlags: 0
  m_Script: {fileID: 12395, guid: 0000000000000000e000000000000000, type: 0}
  m_Name: Palette Settings
  m_EditorClassIdentifier: 
  cellSizing: 0
