%YAML 1.1
%TAG !u! tag:unity3d.com,2011:
--- !u!114 &11400000
MonoBehaviour:
  m_ObjectHideFlags: 0
  m_CorrespondingSourceObject: {fileID: 0}
  m_PrefabInstance: {fileID: 0}
  m_PrefabAsset: {fileID: 0}
  m_GameObject: {fileID: 0}
  m_Enabled: 1
  m_EditorHideFlags: 0
  m_Script: {fileID: 11500000, guid: 9d1514134bc4fbd41bb739b1b9a49231, type: 3}
  m_Name: NeedleDown
  m_EditorClassIdentifier: 
  m_DefaultSprite: {fileID: 4712665625723851849, guid: a8dcdb078bd2d664f93c3829fd81b7da,
    type: 3}
  m_DefaultGameObject: {fileID: 4174002972477153303, guid: d2ec133ba0944f146b606026bc60adfe,
    type: 3}
  m_DefaultColliderType: 1
  m_TilingRules: []
